/* XPM */
static char *calibre[] = {
/* columns rows colors chars-per-pixel */
"107 107 232 2 ",
"   c #010203",
".  c #0B0100",
"X  c #0D0B03",
"o  c #000609",
"O  c #000A0C",
"+  c #020906",
"@  c #140200",
"#  c #1C0400",
"$  c #150A00",
"%  c #1D0D00",
"&  c #1D1101",
"*  c #171203",
"=  c #000E12",
"-  c #010918",
";  c #001116",
":  c #00151B",
">  c #00191E",
",  c #0F101A",
"<  c #141716",
"1  c #230500",
"2  c #2B0600",
"3  c #220D00",
"4  c #2C0A00",
"5  c #330501",
"6  c #3B0501",
"7  c #330900",
"8  c #3C0A00",
"9  c #3A0008",
"0  c #231200",
"q  c #2B1400",
"w  c #2C1A00",
"e  c #271900",
"r  c #321600",
"t  c #341A00",
"y  c #3A1A00",
"u  c #3B1500",
"i  c #290F12",
"p  c #342200",
"a  c #3C2500",
"s  c #3C2A00",
"d  c #39290B",
"f  c #27220F",
"g  c #000C2C",
"h  c #000A24",
"j  c #001C23",
"k  c #021724",
"l  c #010E38",
"z  c #031537",
"x  c #1A1A21",
"c  c #002126",
"v  c #00232B",
"b  c #00292F",
"n  c #002631",
"m  c #002A34",
"M  c #002E38",
"N  c #00323D",
"B  c #440C00",
"V  c #4B0D00",
"C  c #470400",
"Z  c #530D00",
"A  c #5B0D00",
"S  c #570401",
"D  c #431201",
"F  c #4D1100",
"G  c #471C01",
"H  c #541200",
"J  c #5C1200",
"K  c #541B02",
"L  c #5A1B00",
"P  c #630D01",
"I  c #6B0E00",
"U  c #610600",
"Y  c #631200",
"T  c #6B1300",
"R  c #641B01",
"E  c #6B1A01",
"W  c #741500",
"Q  c #7B1600",
"!  c #751B00",
"~  c #7B1900",
"^  c #730F00",
"/  c #432C00",
"(  c #4A2E00",
")  c #542D00",
"_  c #592601",
"`  c #4C3300",
"'  c #473200",
"]  c #5B3501",
"[  c #553900",
"{  c #5D3C00",
"}  c #533501",
"|  c #6E2A01",
" . c #672501",
".. c #742300",
"X. c #7B2300",
"o. c #742C01",
"O. c #792C00",
"+. c #633C00",
"@. c #6C3800",
"#. c #733E01",
"$. c #7A3701",
"%. c #654400",
"&. c #6D4400",
"*. c #6D4A00",
"=. c #734500",
"-. c #744B00",
";. c #7C4D00",
":. c #7C4301",
">. c #7B5100",
",. c #755900",
"<. c #6D5700",
"1. c #6E5400",
"2. c #001543",
"3. c #00194B",
"4. c #00144A",
"5. c #001B54",
"6. c #001C5C",
"7. c #001754",
"8. c #003841",
"9. c #012359",
"0. c #001D63",
"q. c #001D6C",
"w. c #001D73",
"e. c #001F7A",
"r. c #002263",
"t. c #00236C",
"y. c #002374",
"u. c #00257B",
"i. c #00297D",
"p. c #002974",
"a. c #00317E",
"s. c #831A00",
"d. c #821700",
"f. c #883900",
"g. c #903800",
"h. c #824D00",
"j. c #874801",
"k. c #934700",
"l. c #835400",
"z. c #8B5500",
"x. c #845A00",
"c. c #8C5B00",
"v. c #935400",
"b. c #935B00",
"n. c #9B5D00",
"m. c #9B5600",
"M. c #A55C00",
"N. c #8E6300",
"B. c #956300",
"V. c #9C6400",
"C. c #9D6A00",
"Z. c #A36400",
"A. c #A46B00",
"S. c #AB6C00",
"D. c #AA6600",
"F. c #B36C00",
"G. c #B56900",
"H. c #A67300",
"J. c #AC7300",
"K. c #AE7900",
"L. c #A47900",
"P. c #B37400",
"I. c #BA7400",
"U. c #B57A00",
"Y. c #BB7B00",
"T. c #C17B00",
"R. c #BC8200",
"E. c #B78A00",
"W. c #B48F00",
"Q. c #C18300",
"!. c #C58A00",
"~. c #D89700",
"^. c #D48A00",
"/. c #E59900",
"(. c #E6A500",
"). c #DCA000",
"_. c #002581",
"`. c #002A83",
"'. c #002C8B",
"]. c #00258B",
"[. c #00328C",
"{. c #003283",
"}. c #002C93",
"|. c #002E9B",
" X c #002695",
".X c #003295",
"XX c #00329C",
"oX c #00399A",
"OX c #002DA4",
"+X c #0034A4",
"@X c #003BA4",
"#X c #0035AB",
"$X c #0039AC",
"%X c #0036B3",
"&X c #003BB3",
"*X c #003CBB",
"=X c #0036BB",
"-X c #0042BD",
";X c #0046B5",
":X c #0043AE",
">X c #00409F",
",X c #003CC3",
"<X c #003CCB",
"1X c #0036C6",
"2X c #003DD3",
"3X c #003FE4",
"4X c #0043C4",
"5X c #0044CC",
"6X c #0049CB",
"7X c #0045D4",
"8X c #0049D4",
"9X c #0044DB",
"0X c #004BDB",
"qX c #0056DB",
"wX c #0050C9",
"eX c #0046E2",
"rX c #004BE3",
"tX c #004CEC",
"yX c #0046EA",
"uX c #0052E5",
"iX c #0053EC",
"pX c #0059EB",
"aX c #004DF3",
"sX c #004EFB",
"dX c #0047FA",
"fX c #0053F4",
"gX c #005BF5",
"hX c #0053FB",
"jX c #005BFB",
"kX c #0062FC",
"lX c #0064F7",
"zX c None",
/* pixels */
"zXzXzXzXzXzXzXzXzXzXzXzXzXzXzXzXzXzXzXzXzXzXzXzXzXzXzXzXzXzXzXzXzXzXzXzXzXzXzXzXzXzXzXzXzXzXzXzXzXzXzXzXzXzXzXzXzXzXzXzXzXzXzXzXzXzXzXzXzXzXzXzXzXzXzXzXzXzXzXzXzXzXzXzXzXzXzXzXzXzXzXzXzXzXzXzXzXzXzXzXzXzXzXzXzXzXzX",
"zXzXzXzXzXzXzXzXzXzXzXzXzXzXzXzXzXzXzXzXzXzXzXzXzXzXzXzXzXzXzXzXzXzXzXzXzXzXzXzXzXzXzXzXzXzXzXzXzXzXzXzXzXzXzXzXzXzXzXzXzXzXzXzXzXzXzXzXzXzXzXzXzXzXzXzXzXzXzXzXzXzXzXzXzXzXzXzXzXzXzXzXzXzXzXzXzXzXzXzXzXzXzXzXzXzXzX",
"zXzXzXzXzXzXzXzXzXzXzXzXzXzXzXzXzXzXzXzXzXzXzXzXzXzXzXzXzXzXzXzXzXzXzXzXzXzXzXzXzXzXzXzXzXzXzXzXzXzXzXzXzXzXzXzXzXzXzXzXzXzXzXzXzXzXzXzXzXzXzXzXzXzXzXzXzXzXzXzXzXzXzXzXzXzXzXzXzXzXzXzXzXzXzXzXzXzXzXzXzXzXzXzXzXzXzX",
"zXzXzXzXzXzXzXzXzXzXzXzXzXzXzXzXzXzXzXzXzXzXzXzXzXzXzXzXzXzXzXzXzXzXzXzXzXzXzXzXzXzXzXzXzXzXzXzXzXzXzXzXzXzXzXzXzXzXzXzXzXzXzXzX      zXzXzXzXzXzXzXzXzXzXzXzXzXzXzXzXzXzXzXzXzXzXzXzXzXzXzXzXzXzXzXzXzXzXzXzXzXzXzXzX",
"zXzXzXzXzXzXzXzXzXzXzXzXzXzXzXzXzXzXzXzXzXzXzXzXzXzXzXzXzXzXzXzXzXzXzXzXzXzXzXzXzXzXzXzXzXzXzXzXzXzXzXzXzXzXzXzXzXzX    .     . . @ .   zXzXzXzXzXzXzXzXzXzXzXzXzXzXzXzXzXzXzXzXzXzXzXzXzXzXzXzXzXzXzXzXzXzXzXzXzXzXzX",
"zXzXzXzXzXzXzXzXzXzXzXzXzXzXzXzXzXzXzXzXzXzXzXzXzXzXzXzXzXzXzXzXzXzXzXzXzXzXzXzXzXzXzXzXzXzXzXzXzXzXzXzXzXzXzXzXzXzX  . @ # 2 6 6 9 @   zXzXzXzXzXzXzXzXzXzXzXzXzXzXzXzXzXzXzXzXzXzXzXzXzXzXzXzXzXzXzXzXzXzXzXzXzXzXzX",
"zXzXzXzXzXzXzXzXzXzXzXzXzXzXzXzXzXzXzXzXzXzXzXzXzXzXzXzXzXzXzXzXzXzXzXzXzXzXzXzXzXzXzXzXzXzXzXzXzXzXzXzXzXzXzXzXzXzX  # 5 5 6 6 C 8 3 $ zXzXzXzXzXzXzXzXzXzXzXzXzXzXzXzXzXzXzXzXzXzXzXzXzXzXzXzXzXzXzXzXzXzXzXzXzXzXzX",
"zXzXzXzXzXzXzXzXzXzXzXzXzXzXzXzXzXzXzXzXzXzXzXzXzXzXzXzXzXzXzXzXzXzXzXzXzXzXzXzXzXzXzXzXzXzXzXzXzXzXzXzXzXzXzXzXzXzXX 4 D G _ @.;.m.z.a zXzXzXzXzXzXzXzXzXzXzXzXzXzXzXzXzXzXzXzXzXzXzXzXzXzXzXzXzXzXzXzXzXzXzXzXzXzXzX",
"zXzXzXzXzXzXzXzXzXzXzXzXzXzXzXzXzXzXzXzXzXzXzXzXzXzXzXzXzXzXzXzXzXzXzXzXzXzXzXzXzXzXzXzXzXzXzXzXzXzXzXzXzXzXzXzXzXzXw #.m.M.M.V.Z.D.Z.( zXzXzXzXzXzXzXzXzXzXzXzXzXzXzXzXzXzXzXzXzXzXzXzXzXzXzXzXzXzXzXzXzXzXzXzXzXzXzX",
"zXzXzXzXzXzXzXzX. @ @ # 1 1 2 4 5 2 5 4 7 5 2 2 2 # # @ zXzXzXzXzXzXzXzXzXzXzXzXzXzXzXzXzXzXzXzXzXzXzXzXzXzXzXzXzXzXr =.Z.n.n.n.b.V.A.{ & zXzXzXzXzXzXzXzXzXzXzXzXzXzXzXzXzXzXzXzXzXzXzXzXzXzXzXzXzXzXzXzXzXzXzXzXzXzX",
"zXzXzXzXzXzXzXzX. @ 1 2 5 7 8 B B V V V F V B B 8 4 1 @ zXzXzXzXzXzXzXzXzXzXzXzXzXzXzXzXzXzXzXzXzXzXzXzXzXzXzXzXzXzXq #.A.Z.b.c.c.v.A.-.0 zXzXzXzXzXzXzXzXzXzXzXzXzXzXzXzXzXzXzXzXzXzXzXzXzXzXzXzXzXzXzXzXzXzXzXzXzXzX",
"zXzXzXzXzXzXzXzX. # 4 8 B V H J J Y Y Y Y Y Y A Z 8 1 # zXzXzXzXzXzXzXzXzXzXzXzXzXzXzXzXzXzXzXzXzXzXzXzXzXzXzXzXzXzX0 { A.V.n.c.b.z.J.l.e zXzXzXzXzXzXzXzXzXzXzXzXzXzXzXzXzXzXzXzXzXzXzXzXzXzXzXzXzXzXzXzXzXzXzXzXzXzX",
"zXzXzXzXzXzXzXzX@ # 5 8 V J J Y T W W ! Q W W T J B 5 # zXzXzXzXzXzXzXzXzXzXzXzXzXzXzXzXzXzXzXzXzXzXzXzXzXzXzXzXzXzXzX} A.V.l.z.C.z.U.c.p zXzXzXzXzXzXzXzXzXzXzXzXzXzXzXzXzXzXzXzXzXzXzXzXzXzXzXzXzXzXzXzXzXzXzXzXzXzX",
"zXzXzXzXzXzXzXzX@ # 7 B Z J Y W W ~ ~ d.d.Q Q W T H 8 1 zXzXzXzXzXzXzXzXzXzXzXzXzXzXzXzXzXzXzXzXzXzXzXzXzXzXzXzXzXzXzX( Z.Z.h.#.-.A.P.b./ zXzXzXzXzXzXzXzXzXzXzXzXzXzXzXzXzXzXzXzXzXzXzXzXzXzXzXzXzXzXzXzXzXzXzXzXzXzX",
"zXzXzXzXzXzXzXzX@ # 7 B H J Y T W Q Q d.Q Q Q W T H 8 1 zXzXzXzXzXzXzXzXzXzXzXzXzXzXzXzXzXzXzXzXzXzXzXzXzXzXzXzXzXzXzXa n.S.v.&.+.l.D.Z.} zXzXzXzXzXzXzXzXzXzXzXzXzXzXzXzXzXzXzXzXzXzXzXzXzXzXzXzXzXzXzXzXzXzXzXzXzXzX",
"zXzXzXzXzXzXzXzX@ # 4 B V J Y T W Q Q ~ ~ W ! T Y V 8 # zXzXzXzXzXzXzXzXzXzXzXzXzXzXzXzXzXzXzXzXzXzXzXzXzXzXzXzXzXzX3 r b.F.A.;.@.-.x.S.{ zXzXzXzXzXzXzXzXzXzXzXzXzXzXzXzXzXzXzXzXzXzXzXzXzXzXzXzXzXzXzXzXzXzXzXzXzXzX",
"zXzXzXzXzXzXzXzX@ # 7 B Z J J T W Q Q ~ ~ d.Q W T H 8 1 zXzXzXzXzXzXzXzXzXzXzXzXzXzXzXzXzXzXzXzXzXzXzXu q 4 q u y u 4 r x.Z.n.Z.#.+.h.U.&.e zXzXzXzXzXzXzXzXzXzXzXzXzXzXzXzXzXzXzXzXzXzXzXzXzXzXzXzXzXzXzXzXzXzXzXzXzX",
"zXzXzXzXzXzXzXzX@ 1 7 B Z A J I T W Q Q Q d.W W Y H 7 1 zXzXzXzXzXzXzXzXzXzXzXzXzXzXzXzXzXzXzXzXy t e u u y zXy u t 0 0 =.V.n.V.N.] z.D.,.w zXzXzXzXzXzXzXzXzXzXzXzXzXzXzXzXzXzXzXzXzXzXzXzXzXzXzXzXzXzXzXzXzXzXzXzXzX",
"zXzXzXzXzXzXzXzX@ # 7 B V H J T W W Q Q Q Q W W Y V 6 # zXzXzXzXzXzXzXzXzXzXzXzXzXzXzXzXzXzXzXzXp r w q e t y y y u 0 % +.A.Z.Z.;.&.z.n.c.t zXzXzXzXzXzXzXzXzXzXzXzXzXzXzXzXzXzXzXzXzXzXzXzXzXzXzXzXzXzXzXzXzXzXzXzXzX",
"zXzXzXzXzXzXzXzX@ # 4 8 V A A I ! ! ~ s.s.s.d.W Y Z 5 # zXzXzXzXzXzXzXzXzXzXzXzXzXzXzXzXzXzXzXzXu u r q 3 u y y y t 0 % ) A.P.b.=.] J.P.Z.s zXzXzXzXzXzXzXzXzXzXzXzXzXzXzXzXzXzXzXzXzXzXzXzXzXzXzXzXzXzXzXzXzXzXzXzXzX",
"zXzXzXzXzXzXzXzX@ 1 7 B F H J J I I ^ W W W W I Y F 7 # zXzXzXzXzXzXzXzXzXzXzXzXzXzXzXzXzXzXzXzXt t u 0 3 t y y y y 3 $ / Z.I.z.&.=.D.U.J.` zXzXzXzXzXzXzXzXzXzXzXzXzXzXzXzXzXzXzXzXzXzXzXzXzXzXzXzXzXzXzXzXzXzXzXzXzX",
"zXzXzXzXzXzXzXzX. # 2 8 V V Z A J Y T T T T T Y A V 5 @   +       + o o + + o + + + + o o   . zXy y y 3 3 r y u y y 4 # y b.S.c.-.C.b.J.I.[ zXzXzXzXzXzXzXzXzXzXzXzXzXzXzXzXzXzXzXzXzXzXzXzXzXzXzXzXzXzXzXzXzXzXzXzXzX",
"zXzXzXzXzXzXzXzX. . @ 1 1 1 1 2 2 2 7 5 7 5 5 4 4 1 @       + + O O O = ; ; = ; O ; = O O o   zXzXu t q q r u r y t 4 % r z.G.n.B.v.A.b.T.%.zXzXzXzXzXzXzXzXzXzXzXzXzXzXzXzXzXzXzXzXzXzXzXzXzXzXzXzXzXzXzXzXzXzXzXzXzX",
"zXzXzXzXzXzXzXzX@ @ 1 2 7 6 B B V Z Z J H J V V V 5 1 .     o = ; ; ; : > > > j j > k = O o   zXzXy r q 3 q y u y t 3 # e -.F.A.Z.b.P.b.Q.,.e zXzXzXzXzXzXzXzXzXzXzXzXzXzXzXzXzXzXzXzXzXzXzXzXzXzXzXzXzXzXzXzXzXzXzXzX",
"zXzXzXzXzXzXzXzX@ # 7 8 B V A A Y T W W W W T I J V 2 .     O = ; : k j v v v v v v v : = o   % zXy e t q 3 y u y u 0 # 0 +.S.F.V.Z.Z.S.Q.b.w zXzXzXzXzXzXzXzXzXzXzXzXzXzXzXzXzXzXzXzXzXzXzXzXzXzXzXzXzXzXzXzXzXzXzXzX",
"zXzXzXzXzXzXzXzX. # 7 8 V Z Z Y Y T W Q W Q W I J V 2 .   + O = : > j v v M M M M n n k ; o   % zXy t r q q y t y y 0 # 0 } S.I.G.S.P.Y.R.A.s zXzXzXzXzXzXzXzXzXzXzXzXzXzXzXzXzXzXzXzXzXzXzXzXzXzXzXzXzXzXzXzXzXzXzXzX",
"zXzXzXzXzXzXzXzX@ # 4 B V H J Y T W Q W W ! W T Y V 5 .   + = ; > j v v n n m M M M m j ; O   $ zXy t t q 0 y u y r e % # ( D.I.P.I.U.T.Q.P./ zXzXzXzXzXzXzXzXzXzXzXzXzXzXzXzXzXzXzXzXzXzXzXzXzXzXzXzXzXzXzXzXzXzXzXzX",
"zXzXzXzXzXzXzXzX@ # 7 8 V H A Y T T W Q Q Q W T Y V 5 .   O O > v M zXzXzXzXzXzXzXzXzXv : O   @ zXy y t q 3 y t t u 0 3 % a n.G.G.T.T.Y.Y.U.` zXzXzXzXzXzXzXzXzXzXzXzXzXzXzXzXzXzXzXzXzXzXzXzXzXzXzXzXzXzXzXzXzXzXzXzX",
"zXzXzXzXzXzXzXzX. # 4 8 C Z H J T Y W T T Q Q W L V 5 .   + O : j c b M N N 8.8.N N m j ; O   X zXy y t q 3 u y u r e % # w c.Y.G.I.I.Y.Y.R.*.* zXzXzXzXzXzXzXzXzXzXzXzXzXzX2.5.9.zXzXzXzXzXzXzXzXzXzXzXzXzXzXzXzXzXzX",
"zXzXzXzXzXzXzXzX@ # 7 B Z L K L Y H T ! ....W ^ Y V 2 .   o O ; : > c v n M M N M m n j ; O   . zXt y t q 0 r t u r 0 % $ e ;.J.z.h.z.b.P.Q.,.& zXzXzXzXzXzXzXzXzXzX6.u.OX,X.X`..XzXzXzXzXzXzXzXzXzXzXzXzXzXzXzXzXzXzX",
"zXzXzXzXzXzXzXzX@ # 7 8 F H :. .Y O.X.E o...W Y A V 2 .   o O ; ; > c v v M M M M m n j ; O   . zXr r t q 4 r zXy u q & $ 0 %.F.F.K.B.z.U.Y.c.w zXzXzXzXzXzX3.0.i.@X-X7XuXpX0X[.#XzXzXzXzXzXzXzXzXzXzXzXzXzXzXzXzXzXzX",
"zXzXzXzXzXzXzXzX@ # 4 8 V J  .H J  .R J  .X.T T J B 2 .     O ; : j v v n n b n M m n j ; O + . zXr w y q 3 q zXt r 0 0 % & ] F.I.U.Z.l.B.U.H.p zXzXzX5.y.'.&X*X8X0XfXjXjXjXjX[.&Xi.zXzXzXzXzXzXzXzXzXzXzXzXzXzXzXzXzX",
"zXzXzXzXzXzXzXzX@ 1 7 B V J :.,.,.,.,.<.zXX.T I J V 2 .     = ; : j c c v v j v M n m c ; O + . zXt r y q 3 q zXy q 0 0 3 % ( A.I.Y.S.C.B.S.P.s h 6.}.$X4X6XeX,X}.].kXjXlXjXlXOX$X}.zXzXzXzXzXzXzXzXzXzXzXzXzXzXzXzXzX",
"zXzXzXzXzXzXzXzX@ # 4 B F V f.;.j.f.g.g.k.~ I T J V 4 .   o O ; : > j v m b k v n M n j ; O   . zXzXy y w q 3 G y w 3 0 0 @ a V.Y.Y.U.b.A.Q.R.` g `.5X0XrXuXgX;X#Xq.|.hXjXjXjX,XXXOXzXzXzXzXzXzXzXzXzXzXzXzXzXzXzXzXzX",
"zXzXzXzXzXzXzXzX@ # 4 8 B H Y T ! T W ^ F ..I T J V 2 .     O ; : j c v v b c n M n n j ; O   + zXzXy w t q 0 D y r 3 0 3 @ p c.Y.I.Y.&.;.B.P.1.g i.5X0XtXiXfX*XrX&X6.+XjXjXhXuX}.&XzXzXzXzXzXzXzXzXzXzXzXzXzXzXzXzXzX",
"zXzXzXzXzXzXzXzX@ # 2 8 V J H 8 F I P G z.X.W T J B 2 .   o O ; : > c c v > c m m M n j : O     zXzXy y r q 0 y y r % % 3 % w >.Y.I.I.zXzXzXzXl.k y.4XrXtXgX0X&X0X0X,X0..XuXgXpX}.&Xu.zXzXzXzXzXzXzXzXzXzXzXzXzXzXzXzX",
"zXzXzXzXzXzXzXzX@ # 2 8 F C ) zXN.G ) zXO.W T Y J B 2 .     O ; > > j v b k j m M n v k ; O     zXzXy t t e 0 t y q 0 % 1 & q +.I.P.Y.x.h.R.R.N.x r.&XiXiXgX4X$XrXfX7X+X$XuXgXgXoX&X XzXzXzXzXzXzXzXzXzXzXzXzXzXzXzXzX",
"zXzXzXzXzXzXzXzX@ # 4 8 B V k.f.O.A.T.X.T T Y P J B 2 .   o O ; : k j v b j j m m m v j ; o +   zXzXt y r q 0 r zXr 0 & % 3 q [ P.F.A.x.=.U.R.C.f 6.oXtXfXtX&X+X<X9X*X5X-X8XgXjX-X+X$XzXzXzXzXzXzXzXzXzXzXzXzXzXzXzXzX",
"zXzXzXzXzXzXzXzX@ # 7 8 B F o.6 B _ K B H ..T P J B 2 .     = ; : > j v n v j m M n v j ; O     zXzXt y r q 0 w zXr 0 0 % 3 0 ` J.F.B.b.x.b.R.H./ 0.[.0XgXiX7X*X-X0X8X0XuXiXjXjXqX.X8Xr.zXzXzXzXzXzXzXzXzXzXzXzXzXzXzX",
"zXzXzXzXzXzXzXzX@ # 4 6 V C n.W.E.W.W.W.!.X.I T J B 2 .   o O ; : k c j b b c n m m n j ; O o   zXzXt y r q q 4 G q 0 3 3 % 1 / A.F.U.V.z.l.L.Y.} 7.p.2XgXfXeXyXtXfXhXjXjXlXkXgXpX.X5X'.zXzXzXzXzXzXzXzXzXzXzXzXzXzXzX",
"zXzXzXzXzXzXzXzX. # 4 8 V Z f.$.o.! X.f.k.! I Y J B 2 .     O ; : > c j m v j v n M v j ; O   zXzXzXy t r q 0 3 / 3 0 3 % 3 % p c.G.I.K.V.n.U.Y.%.z y.,XgXhXhXhXhXhXjXjXgXjXkXlXkX>X=X$XzXzXzXzXzXzXzXzXzXzXzXzXzXzXzX",
"zXzXzXzXzXzXzXzX@ # 4 6 V H J A T ! Y A U T T Y J B 1 .   o O ; : > j v n j k v M n v j ; O o zXzXzXt y r q 4 q G 0 3 3 1 % 3 t l.I.P.G.b.N.J.Q.;.z u..XaXhXhXhXhXjXjXjXjXlXjXlXzX;XoX8XzXzXzXzXzXzXzXzXzXzXzXzXzXzXzX",
"zXzXzXzXzXzXzXzX@ # 2 8 B H B F F J _ @.L Y T Y J B 2 .     O ; : j c j v j v n n M n j ; O   zXzXzXy w t q 0 4 y e 3 3 3 % % w =.Y.S.A.c.z.A.T.c.x _.`.aXfXhXhXjXhXjXhXjXjXlXjXjXqX{.iXy.zXzXzXzXzXzXzXzXzXzXzXzXzXzX",
"zXzXzXzXzXzXzXzX. # 2 7 D V @.H.z.@.U.G.v.R E T A B 1 .     = = ; k j j v v v n n v v > = O o zXzXzXy t r r 0 0 r e % 3 3 3 1 0 +.I.S.b.c.c.U.Y.B.f y.u.0XsXhXjXjXuXiXjXjXjXkXjXkXlX{.5X+XzXzXzXzXzXzXzXzXzXzXzXzXzXzX",
"zXzXzXzXzXzXzXzX. # 4 8 V V j. .X.M.O.P o.X.W Y J V 2 .   + O ; : : k c v v v n m v c : ; O o zXzXzXy w r w q 3 q q 0 1 3 % % 0 ] S.P.I.Z.z.S.Y.A.d t.].&XhXhXhX7X@X7XkXjXjXkXkXkXkX>X@X7XzXzXzXzXzXzXzXzXzXzXzXzXzXzX",
"zXzXzXzXzXzXzXzX@ @ 2 8 B V @.} ( %.] ) =.! W E J B 1 .   o O = ; > j c c v b n m v v : ; O   zXzXzXy q r r q 0 4 q & % 3 3 % 3 / S.P.A.C.V.V.Y.P.( 4.}.'.hXfX*X|.}.+XiX'.&XlXjXkXkXwX{.yXzXzXzXzXzXzXzXzXzXzXzXzXzXzX",
"zXzXzXzXzXzXzXzX@ # 4 7 D C Z.~.^.~.~.~.).o.P P J B 1 .     O ; ; : c c v v v n b v c : ; O   zXzXzXt w r q q 0 q q 0 3 % 3 % % a n.P.b.B.J.S.K.I.+.z .Xy.tXrX+X]._..XtXXXy.@XkXkXkXlXp.8X|.zXzXzXzXzXzXzXzXzXzXzXzXzX",
"zXzXzXzXzXzXzXzX. # 2 8 B B | Z A P P T W T E Y Z B 2 .     O ; : : > j j v v n b v v : = O + zXzXzXy r r w q 0 4 0 & 3 3 3 1 % y c.S.=.z.S.V.A.Y.=., .Xu.,XgX=XXX+X8X8X+X$X@X-XzXzXzX[.$X&XzXzXzXzXzXzXzXzXzXzXzXzXzX",
"zXzXzXzXzXzXzXzX. # 2 8 D V K B S Z A S J T T L Z B 2 .     O ; ; : k c c v v n n v v : = o o zXzXzXt r q r q 3 3 3 % 3 3 3 3 # q ;.I.v.;.>.b.P.Y.l.* _.}.|.jXjXfXfXiX+XXX}.0X@XpXzXzX;X}.5XzXzXzXzXzXzXzXzXzXzXzXzXzX",
"zXzXzXzXzXzXzXzX. # 2 7 B V $.] ) ] ) +.$. .E P H B 1 .   o O = : > > c c > v v v v j : = o o zXzXzXr r r r q % 3 3 3 3 3 3 0 % 0 &.S.S.C.A.I.I.T.c.w 7.+X'.aXhXhXhXhXiX4X.X6X6XwXzXlXqXa.5XzXzXzXzXzXzXzXzXzXzXzXzXzX",
"zXzXzXzXzXzXzXzX. # 2 8 8 C Z./.~.~.~.~.).E Y L H 8 2 .     O ; ; : > v j zXj v v v v : = O   zXzXzXr w r q q & % 0 3 3 3 3 3 3 % +.S.F.S.Z.c.n.K.C.s 2.&Xu.9XsXhXhXhXjXrX'.4XuX@XzXzXzX`.4X}.zXzXzXzXzXzXzXzXzXzXzXzX",
"zXzXzXzXzXzXzXzX. # 1 7 B B @.C Z J J Y o...A Y H B # .   o O = ; : > > c ; > v v v v : = O + zXzXzXzXr q e 0 % % 1 q & % 3 & 3 @ ( D.G.P.A.h.H.F.Z.) h [.}.%XhXsXhXjXjXhX+X&XgX.XpXzXzX@X@X%XzXzXzXzXzXzXzXzXzXzXzXzX",
"zXzXzXzXzXzXzXzX. # 2 7 B F V Z Z A Y R K  .R J H B 1 .   + O = ; : > c c zX> v v j v : = O   zXzXzXzXr q e & 3 % 3 q & % % 0 0 % p Z.F.S.B.c.J.P.H.[ , u.+XXXaXhXhXfXhXaX&X}.iXoX4XjXlX6X.X=XzXzXzXzXzXzXzXzXzXzXzXzX",
"zXzXzXzXzXzXzXzX. @ 2 4 8 V V Z J J R R G.f.E J H B 1 .     = = ; : > j j ; : v v v c > = o + zXzXzXzXq q 0 3 0 % 3 q 0 & % % 3 3 w n.P.V.N.N.P.Y.P.%.0 7.#X'.eXhXhXhXhX9X|.|.7X$XXXjXlXuX[.,XzXzXzXzXzXzXzXzXzXzXzXzX",
"zXzXzXzXzXzXzXzX@ # 2 7 8 B _ 2 9 5 9 9  .| J J F 8 1 .   o O = ; : > k j zX: v v v c : ; O + zXzXzXzXq q 0 0 3 % 3 q & 3 % 3 0 0 0 h.I.P.P.J.P.Y.Y.*.1 z oX].<XsXgXsXhXtX8X+X*X-Xw.uXlXpX.X,X].zXzXzXzXzXzXzXzXzXzXzX",
"zXzXzXzXzXzXzXzX. # 2 7 D 9 Z.Q.E.R.R.!.!.| Y A H B 1 .     O = ; : : zX: : > c v j j : = o   zXzXzXzXe 0 0 0 % % % 0 3 & % 3 % 3 & =.F.P.P.b.c.Y.T.x.e zXi. X=XhXdXhXsXhXjX*XoX7X0.-XjXgX:X$X#XzXzXzXzXzXzXzXzXzXzXzX",
"zXzXzXzXzXzXzXzX. # 2 4 8 8 v.v.z.v.m.m.M.! R J V B 1 .   o o = ; : : > > zXzXc c c j : = +   zXzXzXzX0 0 0 0 & $ & q % % 0 % % 0 % { P.V.z.l.x.H.R.B.w zXt. X|.iXhXhXhXgXjX1X}.iXy.w.yXkX6X+X=XzXzXzXzXzXzXzXzXzXzXzX",
"zXzXzXzXzXzXzXzX. @ 2 7 8 8 K V C S S K Z o.S H H 8 # .   o o = ; : : zX; > j j c c j : = O + zXzXzXzXe 0 e 0 % % % q 3 % % 3 & q $ ( J.S.S.c.l.S.R.H.s zX6.'.'.eXhXsXtX5X*X$X#X0XXX4.`.jXqX[.,Xt.zXzXzXzXzXzXzXzXzXzX",
"zXzXzXzXzXzXzXzX. # 2 4 8 9 V F V C 8  .V.| A A V 8 # .   o O = ; ; > > j j : > j v j : = O   zXzXzXzXq 0 0 0 3 % % 0 3 3 & 0 & q $ p Z.U.U.S.z.A.P.J.' zXzX'.u.2XjXsXhXfXfXrX<XrX8X7.6.zXgXoX,X'.zXzXzXzXzXzXzXzXzXzX",
"zXzXzXzXzXzXzXzX@ @ 2 7 6 B C i y x.!.~.!...Z Z V 8 1 .   o o = = : : > c j k c c c j ; = +   zXzXzXzX0 3 0 0 % 0 $ 0 0 & % 3 3 3 0 w b.Y.U.P.c.A.P.R.{ zXzXi.`.#XhXaXsXhXhX0X,X2XhXy.0.hXjX$X$X#XzXzXzXzXzXzXzXzXzXzX",
"zXzXzXzXzXzXzXzX@ @ 3 7 D 9 x.E.(.~.v. .E R H Z V 8 1 .     O O ; ; : : > j b c c j j : = o   zXzXzXzXq 0 3 0 % 0 % 0 3 3 % 0 3 3 0 0 z.U.z.l.B.B.C.U.-.* zXt.].}.aXaXsXdXhXeX%XOXaX,Xu.hXjX4X.X1X9.zXzXzXzXzXzXzXzXzX",
"zXzXzXzXzXzXzXzX. @ 4 7 8 9 I.G.K | | S J S J H V B # .   + O = ; : : > > : > c v j j ; O o   zXzXzXzXq % 3 % & 0 # 0 0 % & % % 0 3 % &.Y.b.>.x.x.A.P.c.& zX9. Xu.eXtXaXsXsXhXtX$X5XhX4XhXjXuX.X<Xp.zXzXzXzXzXzXzXzXzX",
"zXzXzXzXzXzXzXzX@ @ 2 4 6 B  .@.j.:.@.K K K J H V 8 1 .   + + = ; ; : k > zX; j c j j ; ; +   zXzXzXzXzX0 & & 0 0 $ 3 3 & & & 0 0 3 # [ P.A.-.+.-.V.U.V.e zXzX'.t.1XfXtXaXhXsXfX#X%XjXhXhXhXjX.X%X}.zXzXzXzXzXzXzXzXzX",
"zXzXzXzXzXzXzXzX. @ 2 4 8 B B V B  .j.j.V.R H V B 7 # .     O O = ; > > : ; ; c j j k ; = o + zXzXzXzXzXq 0 & & & % % q 0 % & 0 0 e $ ( J.n.-.B.c.C.Y.H.a zXzX`.u..XtXyXaXsXaXaX2X|.=XtXhXhXhX*X}.%XzXzXzXzXzXzXzXzXzX",
"zXzXzXzXzXzXzXzX. @ 1 7 6 7 i 7 B C V  .:.R Z H B 6 # .     O = = ; : : > ; ; j j j > : = o   zXzXzXzXzXq 0 0 & % % % q 0 0 0 0 & e % s A.P.C.P.C.C.P.J.' zXzXt.`.i.eXeXtXfXtXfX9X}.%XeXhXhXsX9X`.&Xr.zXzXzXzXzXzXzXzX",
"zXzXzXzXzXzXzXzX@ @ 4 7 7 K Z.M. .C H S z.K V B V 7 # .     O O ; ; : > > ; ; j j j > ; = o   zXzXzXzXzXe 0 0 & & & $ q 0 3 0 0 % e 3 w B.P.U.U.P.P.P.R.{ zXzX3.[.y.*XyXrXtXyXiX0X+X7XsXsXdXdXfX].$X_.zXzXzXzXzXzXzXzX",
"zXzXzXzXzXzXzXzX. @ 1 7 8 7 A.K B V V Z $.| H Z D 6 # .     o = O ; > > > ; ; j j j > ; O o + zXzXzXzXzXe 0 & 3 0 % # r 0 1 e & % e 3 & >.I.P.P.P.U.U.U.*.$ zXzX[.e.oXeXeXrXeXrXaX5X9XtXfXsXaXjX X[.}.zXzXzXzXzXzXzXzX",
"zXzXzXzXzXzXzXzX. @ 1 7 i C j.B V V Z Z $.$.Z V B 7 # X   + o O ; ; : > : = = > j j j ; = o   zXzXzXzXzX0 0 3 & 0 & # q e $ 3 0 % & q 0 -.U.P.U.U.U.U.R.N.$ zXzXe.'.y.9X9X0XrXeXeX5X<XyXtXaXaXhX1Xi.XXzXzXzXzXzXzXzXzX",
"zXzXzXzXzXzXzXzX. # 1 4 u B #.8 B B Z 8 M.O.H V B 7 # .     O O = ; ; : ; ; : j j j > ; = O   zXzXzXzXzX0 0 3 & 0 % $ 0 e % & 0 & 3 q * +.J.U.P.K.S.P.Y.B.w zXzX6.'.y.,X<X8X9XeXeX5X+X9XyXyXyXtX9Xi.XX0.zXzXzXzXzXzXzX",
"zXzXzXzXzXzXzXzX. @ 1 4 7 9 #._ i 9 i  .~.H Z V B 7 # .     O O ; ; : > ; O ; > j j k ; O o + zXzXzXzXzX0 0 0 0 0 % @ % w 0 & 0 & 0 r $ } J.P.J.A.A.C.P.H.d zXzX2.'.y.+X5X7X8X9X0X8X.X=XeX0XeXeXyX[. Xp.zXzXzXzXzXzXzX",
"zXzXzXzXzXzXzXzX. @ 1 2 7 7 D S.n.@.D./.k.B Z V B 5 # .   + o O = ; : j : O = k j > k ; O O   zXzXzXzXzX0 0 e % 0 & $ # t 0 & 0 % % q % / S.U.S.K.V.B.K.H.` zXzXzXu.u.'.5X5X5X5X8X0X+X|.9X0X0X9XtXoX_.`.zXzXzXzXzXzXzX",
"zXzXzXzXzXzXzXzX@ @ 1 7 7 6 B F G./.^.f.H V C V 8 7 # .   + O O = ; ; : ; O ; > k > : ; O o   zXzXzXzXzXr e 0 0 0 % & * t & % % & % 0 3 p V.U.J.C.b.c.H.K.{ zXzXzX0.`.i.*X5X5X5X8X8X$X X5X8X7X6XeX=Xu.[.zXzXzXzXzXzXzX",
"zXzXzXzXzXzXzXzX@ @ 1 4 7 6 8 B 6 C C B V C V V 8 7 # .     O O = = ; ; ; O = k : k k ; O o   zXzXzXzXzXt e 0 0 0 % % $ r 0 & & % % 3 3 w c.R.b.B.c.B.K.U.&.* zXzX7.i.y.$X4X4X4X6X6X4X'.&X8X9X7X9X,Xi.[.6.zXzXzXzXzXzX",
"zXzXzXzXzXzXzXzX. # 1 4 7 8 8 B B F V V H F F V 8 7 # .     O O O = ; = = O = > k k : = O o   zXzXzXzXzXt 0 0 0 0 & % $ q & 0 & % & % 0 e >.U.H.&.-.c.U.U.>.0 zXzXzXp.y.XX4X*X4X4X4X4X}..X5X<X5X5X4X'.`.t.zXzXzXzXzXzX",
"zXzXzXzXzXzXzXzX. @ 1 4 7 5 6 B B B V V V B B B 8 4 # .     O O O = ; = ; ; ; > > : : = O o   zXzXzXzXzXzX0 0 0 0 % % X u e & 0 % & 3 q $ *.U.P.h.+.&.C.C.N.p zXzXzXt.t.`.-X&X*X-X-X5XXX'.XX&X4X4X4XXXu.y.zXzXzXzXzXzX",
"zXzXzXzXzXzXzXzX. # 1 2 7 7 8 8 D 8 D V Z V V B B 7 # .     O O = = ; ; = ; : > k k : - = o   zXzXzXzXzXzX3 e 0 3 % % X t w % & 0 % % q X %.U.U.V.-.+.N.x.C.p zXzXzX7.y.w.;X&X&X*X-X-X&X'.XX&X-X-X,X+Xp.i.zXzXzXzXzXzX",
"zXzXzXzXzXzXzXzX. @ 1 4 8 7 8 B B V V V D B D B 8 7 # .     O O O - ; O O O = : : : : = = o   zXzXzXzXzXzX0 0 3 0 % 3 X r w 1 0 3 % % q $ [ H.C.K.B.%.] H.Z.` zXzXzX4.y.0.@X#X&X&X&X*X;X&X&X*X*X&X&X&Xt.i.7.zXzXzXzXzX",
"zXzXzXzXzXzXzXzX. @ @ # 1 1 1 2 2 2 4 7 5 5 5 7 2 1 . .     O O = = ; O O ; : : k : k ; O o   zXzXzXzXzXzXe e 0 % % & X q w % 0 % & & q $ / B.C.C.H.#.*.>.J.[ zXzXzXzXt.0.[.$X#X&X$X$X&X&X&X$X&X&X%X&Xu.y.r.zXzXzXzXzX",
"zXzXzXzXzXzXzXzX  . . @ @ @ 1 1 1 # 1 1 # 1 1 # % # .       O O = = ; ; ; : k > > : : - O o   zXzXzXzXzXzXe 0 3 0 % 3 $ 1 t 0 0 0 % & q % p B.A.D.B.#.-.c.C.%.zXzXzXzX6.0.p.$X#X$X$X$X%X$X#X#X$X$X#X#X'.t.y.zXzXzXzXzX",
"zXzXzXzXzXzXzXzX. @ # 1 4 4 4 7 5 5 8 8 8 8 8 7 7 2 @ .     O O = = = ; : : : > : : ; = O o   zXzXzXzXzXzXq e 0 e 0 & $ # p & & 0 0 & 0 # & x.R.K.;.*.*.K.S.*.e zXzXzX3.t.9.+XoX+X@X@X+X+X+X+X#X#X+X+X.Xr.y.2.zXzXzXzX",
"zXzXzXzXzXzXzXzX. @ 1 1 4 5 7 8 B B B V V V B 8 8 7 # .   + o O = = = ; : : > : > : ; = O o   zXzXzXzXzXzXq e 0 0 0 0 $ @ y 0 & 0 0 % q 3 $ -.Y.H.>.%.>.K.L.<.e zXzXzX2.0.9.'.|.|.+X|.|..X}.}.}.+X+X+XXXr.t.7.zXzXzXzX",
"zXzXzXzXzXzXzXzX. $ 1 2 7 8 8 8 8 B B D D B B 8 8 7 # .     O O o = = ; - : : : : : ; = o +   zXzXzXzXzXzXw 0 0 0 0 0 % zXr e 0 0 0 0 0 4 X { P.S.h.h.C.B.U.N.p zXzXzXzX6.9.y.XX.X}.'.|.}.'.XX'.'.|.+X+Xy.9.0.zXzXzXzX",
"zXzXzXzXzXzXzXzX. # 1 2 7 7 8 8 8 B B B B B B 8 8 4 #     + o O = = = ; : : : : : : ; ; O o   zXzXzXzXzXzXw 0 0 0 0 0 3 zXe q 0 0 0 3 q 0 X ` H.K.b.V.C.;.K.C.s zXzXzXzX7.6.r..X.X'.'.'.'.}..X.X`.`.|.oXu.9.q.zXzXzXzX",
"zXzXzXzXzXzXzXzX. @ % 1 4 7 8 7 8 8 B B B B B 8 8 4 # .     O O ; : j v n m M m m v j ; O +   zXzXzXzXzXzXe e 0 & 0 0 0 zX0 q 0 0 0 0 e 1 zXa C.K.C.A.C.c.B.C.( zXzXzXzX3.t.5.[..X'.y._.'.'.'.i.u._.'.}.'.9.w.l zXzXzX",
"zXzXzXzXzXzXzXzX. @ # 1 4 7 7 6 6 8 B B V B B 8 8 4 @ .     O O = : j v n m m M m z c ; O +   zXzXzXzXzXzXe e 0 0 0 0 0 zX0 w 0 & 0 0 0 q zXw B.U.A.Z.V.V.A.H.[ zXzXzXzXl 6.5.t.'.'.u.u.y._.u.y.w.y.'.}.}.9.6.3.zXzXzX",
"zXzXzXzXzXzXzXzX. @ # 2 4 7 7 8 6 B B B B B B B 8 7 #       O O O O ; = - ; ; : : ; ; = O +   zXzXzXzXzXzXw e 3 0 0 0 & zX0 r 0 0 & & & r zXe x.I.H.A.S.P.zXzX[ * zXzXzXzX5.7.r.'.`.`.w.w.y.`.y.y.u.`.'.`.0.4.2.zXzXzX",
"zXzXzXzXzXzXzXzX. @ # 2 4 7 7 7 8 8 B 8 B 8 8 8 7 4 # .     + O = = = = ; : : ; : ; ; ; o o   zXzXzXzXzXzXe e 0 q e e 0 . % t e q 0 0 & r zX% *.P.H.V.h.+.K 8 @ + zXzXzXzXz 0.6.`.`.u.y.q.u.`._.`._.u.u.t.7.g z zXzXzX",
"zXzXzXzXzXzXzXzX. @ # % 1 2 2 2 4 2 5 5 5 5 5 4 2 1 . .       o o O O O = = = O O ; O O o o     zXzXzXzXzX0 q & 0 & & q X X r 0 0 0 0 % q % + 3 D C 6 C C S S 2   zXzXzXzXz r.7.p.`.i.u.u.u.i.i.t.6.7.3.l zXzXzXzXzXzX",
"zXzXzXzXzXzXzXzX. . . @ # # % 1 1 1 # 2 1 1 1 # # # . .           o o o o O o O o O O           zXzXzXzX+ 0 q e e q e q . X r 0 e q q e q % o   6 S U U S S S #   zXzXzXzXh 5.7.0.i.y.t.0.6.7.3.z g zXzXzXzXzXzXzXzXzX",
"zXzXzXzXzXzXzX    . . . @ @ @ @ @ @ @ @ @ @ @ @ @ . .                 +   o +   + o             zXzXzXzX. e w 3 0 0 & 0 . . r w q 0 3 0 q 0 O . 2 6 6 5 2 # . . + zXzXzXzX= 2.4.4.0.7.2.l h - zXzXzXzXzXzXzXzXzXzXzXzX",
"zXzXzXzXzXzXzXzX      . . . . . . . . . . . . . . .                                           zXzXzXzXzXzXzX3 . .   + @ + @ q 3 @ .   . @ zX    .               . zXzXzXzXzXh g h g - = zXzXzXzXzXzXzXzXzXzXzXzXzXzXzX",
"zXzXzXzXzXzXzXzXzXzXzXzXzXzXzXzXzXzXzXzXzXzXzXzXzX  zX                                      zXzXzXzXzXzXzXzXzXzXzXzXzXzXzXzX# zXzXzXzXzXzXzXzX        zXzXzXzXzXzXzXzXzXzXzXzXzXzXzXzXzXzXzXzXzXzXzXzXzXzXzXzXzXzXzXzX",
"zXzXzXzXzXzXzXzXzXzXzXzXzXzXzXzXzXzXzXzXzXzXzXzXzXzXzXzXzXzXzXzXzXzXzXzXzXzXzXzXzXzXzXzXzXzXzXzXzXzXzXzXzXzXzXzXzXzXzXzXzXzXzXzXzXzXzXzXzXzXzXzXzXzXzXzXzXzXzXzXzXzXzXzXzXzXzXzXzXzXzXzXzXzXzXzXzXzXzXzXzXzXzXzXzXzXzX",
"zXzXzXzXzXzXzXzXzXzXzXzXzXzXzXzXzXzXzXzXzXzXzXzXzXzXzXzXzXzXzXzXzXzXzXzXzXzXzXzXzXzXzXzXzXzXzXzXzXzXzXzXzXzXzXzXzXzXzXzXzXzXzXzXzXzXzXzXzXzXzXzXzXzXzXzXzXzXzXzXzXzXzXzXzXzXzXzXzXzXzXzXzXzXzXzXzXzXzXzXzXzXzXzXzXzXzX",
"zXzXzXzXzXzXzXzXzXzXzXzXzXzXzXzXzXzXzXzXzXzXzXzXzXzXzXzXzXzXzXzXzXzXzXzXzXzXzXzXzXzXzXzXzXzXzXzXzXzXzXzXzXzXzXzXzXzXzXzXzXzXzXzXzXzXzXzXzXzXzXzXzXzXzXzXzXzXzXzXzXzXzXzXzXzXzXzXzXzXzXzXzXzXzXzXzXzXzXzXzXzXzXzXzXzXzX",
"zXzXzXzXzXzXzXzXzXzXzXzXzXzXzXzXzXzXzXzXzXzXzXzXzXzXzXzXzXzXzXzXzXzXzXzXzXzXzXzXzXzXzXzXzXzXzXzXzXzXzXzXzXzXzXzXzXzXzXzXzXzXzXzXzXzXzXzXzXzXzXzXzXzXzXzXzXzXzXzXzXzXzXzXzXzXzXzXzXzXzXzXzXzXzXzXzXzXzXzXzXzXzXzXzXzXzX",
"zXzXzXzXzXzXzXzXzXzXzXzXzXzXzXzXzXzXzXzXzXzXzXzXzXzXzXzXzXzXzXzXzXzXzXzXzXzXzXzXzXzXzXzXzXzXzXzXzXzXzXzXzXzXzXzXzXzXzXzXzXzXzXzXzXzXzXzXzXzXzXzXzXzXzXzXzXzXzXzXzXzXzXzXzXzXzXzXzXzXzXzXzXzXzXzXzXzXzXzXzXzXzXzXzXzXzX",
"zXzXzXzXzXzXzXzXzXzXzXzXzXzXzXzXzXzXzXzXzXzXzXzXzXzXzXzXzXzXzXzXzXzXzXzXzXzXzXzXzXzXzXzXzXzXzXzXzXzXzXzXzXzXzXzXzXzXzXzXzXzXzXzXzXzXzXzXzXzXzXzXzXzXzXzXzXzXzXzXzXzXzXzXzXzXzXzXzXzXzXzXzXzXzXzXzXzXzXzXzXzXzXzXzXzXzX",
"zXzXzXzXzXzXzXzXzXzXzXzXzXzXzXzXzXzXzXzXzXzXzXzXzXzXzXzXzXzXzXzXzXzXzXzXzXzXzXzXzXzXzXzXzXzXzXzXzXzXzXzXzXzXzXzXzXzXzXzXzXzXzXzXzXzXzXzXzXzXzXzXzXzXzXzXzXzXzXzXzXzXzXzXzXzXzXzXzXzXzXzXzXzXzXzXzXzXzXzXzXzXzXzXzXzXzX",
"zXzXzXzXzXzXzXzXzXzXzXzXzXzXzXzXzXzXzXzXzXzXzXzXzXzXzXzXzXzXzXzXzXzXzXzXzXzXzXzXzXzXzXzXzXzXzXzXzXzXzXzXzXzXzXzXzXzXzXzXzXzXzXzXzXzXzXzXzXzXzXzXzXzXzXzXzXzXzXzXzXzXzXzXzXzXzXzXzXzXzXzXzXzXzXzXzXzXzXzXzXzXzXzXzXzXzX",
"zXzXzXzXzXzXzXzXzXzXzXzXzXzXzXzXzXzXzXzXzXzXzXzXzXzXzXzXzXzXzXzXzXzXzXzXzXzXzXzXzXzXzXzXzXzXzXzXzXzXzXzXzXzXzXzXzXzXzXzXzXzXzXzXzXzXzXzXzXzXzXzXzXzXzXzXzXzXzXzXzXzXzXzXzXzXzXzXzXzXzXzXzXzXzXzXzXzXzXzXzXzXzXzXzXzXzX",
"zXzXzXzXzXzXzXzXzXzXzXzXzXzXzXzXzXzXzXzXzXzXzXzXzXzXzXzXzXzXzXzXzXzXzXzXzXzXzXzXzXzXzXzXzXzXzXzXzXzXzXzXzXzXzXzXzXzXzXzXzXzXzXzXzXzXzXzXzXzXzXzXzXzXzXzXzXzXzXzXzXzXzXzXzXzXzXzXzXzXzXzXzXzXzXzXzXzXzXzXzXzXzXzXzXzXzX",
"zXzXzXzXzXzXzXzXzXzXzXzXzXzXzXzXzXzXzXzXzXzXzXzXzXzXzXzXzXzXzXzXzXzXzXzXzXzXzXzXzXzXzXzXzXzXzXzXzXzXzXzXzXzXzXzXzXzXzXzXzXzXzXzXzXzXzXzXzXzXzXzXzXzXzXzXzXzXzXzXzXzXzXzXzXzXzXzXzXzXzXzXzXzXzXzXzXzXzXzXzXzXzXzXzXzXzX",
"zXzXzXzXzXzXzXzXzXzXzXzXzXzXzXzXzXzXzXzXzXzXzXzXzXzXzXzXzXzXzXzXzXzXzXzXzXzXzXzXzXzXzXzXzXzXzXzXzXzXzXzXzXzXzXzXzXzXzXzXzXzXzXzXzXzXzXzXzXzXzXzXzXzXzXzXzXzXzXzXzXzXzXzXzXzXzXzXzXzXzXzXzXzXzXzXzXzXzXzXzXzXzXzXzXzXzX",
"zXzXzXzXzXzXzXzXzXzXzXzXzXzXzXzXzXzXzXzXzXzXzXzXzXzXzXzXzXzXzXzXzXzXzXzXzXzXzXzXzXzXzXzXzXzXzXzXzXzXzXzXzXzXzXzXzXzXzXzXzXzXzXzXzXzXzXzXzXzXzXzXzXzXzXzXzXzXzXzXzXzXzXzXzXzXzXzXzXzXzXzXzXzXzXzXzXzXzXzXzXzXzXzXzXzXzX",
"zXzXzXzXzXzXzXzXzXzXzXzXzXzXzXzXzXzXzXzXzXzXzXzXzXzXzXzXzXzXzXzXzXzXzXzXzXzXzXzXzXzXzXzXzXzXzXzXzXzXzXzXzXzXzXzXzXzXzXzXzXzXzXzXzXzXzXzXzXzXzXzXzXzXzXzXzXzXzXzXzXzXzXzXzXzXzXzXzXzXzXzXzXzXzXzXzXzXzXzXzXzXzXzXzXzXzX",
"zXzXzXzXzXzXzXzXzXzXzXzXzXzXzXzXzXzXzXzXzXzXzXzXzXzXzXzXzXzXzXzXzXzXzXzXzXzXzXzXzXzXzXzXzXzXzXzXzXzXzXzXzXzXzXzXzXzXzXzXzXzXzXzXzXzXzXzXzXzXzXzXzXzXzXzXzXzXzXzXzXzXzXzXzXzXzXzXzXzXzXzXzXzXzXzXzXzXzXzXzXzXzXzXzXzXzX"
};
