/* XPM */
static char *icon[] = {
/* columns rows colors chars-per-pixel */
"48 48 240 2 ",
"   c black",
".  c #080107",
"X  c #010B01",
"o  c #01030A",
"O  c #090409",
"+  c #020A0A",
"@  c #0C0F0F",
"#  c #120404",
"$  c #1B050D",
"%  c #1D0E09",
"&  c #001808",
"*  c #010111",
"=  c #040810",
"-  c #0B1212",
";  c #061B1F",
":  c #1A1618",
">  c #260E0C",
",  c #310008",
"<  c #39030A",
"1  c #320B0E",
"2  c #36120F",
"3  c #290018",
"4  c #390E14",
"5  c #361717",
"6  c #082109",
"7  c #082809",
"8  c #14240C",
"9  c #163E0E",
"0  c #0E2110",
"q  c #142413",
"w  c #123B16",
"e  c #232A14",
"r  c #33241C",
"t  c #050929",
"y  c #100520",
"u  c #1F0727",
"i  c #091529",
"p  c #161A25",
"a  c #050831",
"s  c #071536",
"d  c #121837",
"f  c #211A22",
"g  c #281029",
"h  c #291839",
"j  c #311839",
"k  c #082121",
"l  c #1A2B23",
"z  c #182931",
"x  c #282123",
"c  c #382323",
"v  c #24322B",
"b  c #2D322D",
"n  c #2A2232",
"m  c #362736",
"M  c #322E33",
"N  c #30233A",
"B  c #392939",
"V  c #233834",
"C  c #37393A",
"Z  c #45070E",
"A  c #490312",
"S  c #440F15",
"D  c #490C1A",
"F  c #520912",
"G  c #471517",
"H  c #581A1B",
"J  c #631000",
"K  c #690B12",
"L  c #68121A",
"P  c #75191B",
"I  c #461723",
"U  c #521C22",
"Y  c #751921",
"T  c #472828",
"R  c #532F2D",
"E  c #592E31",
"W  c #612124",
"Q  c #6B2121",
"!  c #64242A",
"~  c #602C2C",
"^  c #792323",
"/  c #6A2A3D",
"(  c #633733",
")  c #713738",
"_  c #17440C",
"`  c #1A4E16",
"'  c #105310",
"]  c #19611E",
"[  c #1B7A1B",
"{  c #1C5639",
"}  c #274639",
"|  c #314A31",
" . c #1E722A",
".. c #296B21",
"X. c #286B2A",
"o. c #32652D",
"O. c #237827",
"+. c #246235",
"@. c #377837",
"#. c #100042",
"$. c #181842",
"%. c #08214A",
"&. c #17224A",
"*. c #172855",
"=. c #21214A",
"-. c #3D3541",
";. c #303E5E",
":. c #193265",
">. c #1B3B78",
",. c #293666",
"<. c #253B76",
"1. c #42104A",
"2. c #413241",
"3. c #533955",
"4. c #294A42",
"5. c #314A4A",
"6. c #244A5D",
"7. c #2D6E5D",
"8. c #2C457A",
"9. c #2C5877",
"0. c #464548",
"q. c #4E4454",
"w. c #514D51",
"e. c #5B4B5E",
"r. c #535355",
"t. c #67585A",
"y. c #636B5A",
"u. c #49526A",
"i. c #635F67",
"p. c #596462",
"a. c #5C7070",
"s. c #63656D",
"d. c #6E726A",
"f. c #646A75",
"g. c #767376",
"h. c #797272",
"j. c #75787A",
"k. c #7C7C7E",
"l. c #862317",
"z. c #9D271D",
"x. c #821A22",
"c. c #921D25",
"v. c #8C2422",
"b. c #822228",
"n. c #8C2629",
"m. c #832929",
"M. c #8E2A2C",
"N. c #952629",
"B. c #8C2931",
"V. c #962B31",
"C. c #A0292D",
"Z. c #B62E26",
"A. c #A33135",
"S. c #AD3131",
"D. c #AD3139",
"F. c #B63638",
"G. c #C43D3A",
"H. c #D33C3C",
"J. c #C4413B",
"K. c #BA3D45",
"L. c #DC3F41",
"P. c #C54145",
"I. c #D74541",
"U. c #EB4747",
"Y. c #F74A4A",
"T. c #FB514C",
"R. c #EE5153",
"E. c #FE5553",
"W. c #26921D",
"Q. c #228322",
"!. c #228E22",
"~. c #218C29",
"^. c #269926",
"/. c #2AA828",
"(. c #31AD29",
"). c #2DBB2E",
"_. c #2FAA33",
"`. c #35B733",
"'. c #409F32",
"]. c #31C629",
"[. c #35CD32",
"{. c #36D836",
"}. c #39E235",
"|. c #39E33A",
" X c #39ED39",
".X c #3DF63D",
"XX c #40E33B",
"oX c #41FD3B",
"OX c #2C8741",
"+X c #3D8C41",
"@X c #428C45",
"#X c #42FE41",
"$X c #1E3C88",
"%X c #0D4395",
"&X c #234589",
"*X c #28499A",
"=X c #334A9C",
"-X c #24519B",
";X c #284AA2",
":X c #2954A9",
">X c #3258AD",
",X c #2958BF",
"<X c #3254B0",
"1X c #3660BE",
"2X c #7B6B84",
"3X c #2B5ECA",
"4X c #2E63C0",
"5X c #3566C6",
"6X c #296BDE",
"7X c #356AD2",
"8X c #3C72D8",
"9X c #3B76E5",
"0X c #426EE1",
"qX c #417BE9",
"wX c #427DF3",
"eX c #788586",
"rX c #7B9C8C",
"tX c #3F86F4",
"yX c #498BFE",
"uX c #4A93FF",
"iX c #838184",
"pX c #839083",
"aX c #8A8E92",
"sX c #918A91",
"dX c #938B9B",
"fX c #9B8B9B",
"gX c #879395",
"hX c #9A959B",
"jX c #98A6A6",
"kX c #A4ABA6",
"lX c #AAA8AA",
"zX c #B2A9AD",
"xX c #B0B4AC",
"cX c #B4ADB4",
"vX c #ACB3B6",
"bX c #B1B4B6",
"nX c #BEADC2",
"mX c #C3BBCA",
"MX c #C2CDC2",
"NX c None",
/* pixels */
"NXNXNXNXNXNXNXNXNXNXNXNXNXNXNXNXNXNXNXNXNXt.x x x x x mXNXNXNXNXNXNXNXNXNXNXNXNXNXNXNXNXNXNXNXNX",
"NXNXNXNXNXNXNXNXNXNXNXNXNXNXNXNXNXNXbXaXiXM p ,.<.<.8.f.k.sXNXNXNXNXNXNXNXNXNXNXNXNXNXNXNXNXNXNX",
"NXNXNXNXNXNXNXNXNXNXNXNXNXNXNXNXNXNXs.p o o s :X,X3X7Xi O f NXNXNXNXNXNXNXNXNXNXNXNXNXNXNXNXNXNX",
"NXNXNXNXNXNXNXNXNXNXNXNXNXNXNXkXp.    o s $X4XuXyXwXwXyX5X%.o 0.NXNXNXNXNXNXNXNXNXNXNXNXNXNXNXNX",
"NXNXNXNXNXNXNXNXNXNXNXNXNXNXiXr.M i *.:.*X5X9XuXyXyXtXyXqX:X:.;.i.hXNXNXNXNXNXNXNXNXNXNXNXNXNXNX",
"NXNXNXNXNXNXNXNXNXNXNXNXNXjX    o *.;X7XyXyXyXyXyXyXyXyXyXuX4X>.  2.sXNXNXNXNXNXNXNXNXNXNXNXNXNX",
"NXNXNXNXNXNXNXNXNXNXNXv -   a :XwXyXyXyXyXyXyXyXyXyXyXyXyXyXwXwXyXs *   NXNXNXNXNXNXNXNXNXNXNXNX",
"NXNXNXNXNXNXNXNXNXkXj.p &.:.*X8XtXyXyXyXyXyXyXyXyXyXyXyXyXyXtXtXyX-X>.:.s.iXzXNXNXNXNXNXNXNXNXNX",
"NXNXNXNXNXNXNXNXNXw.  a $X5XuXyXyXyXyXyXyXyXyXyXyXyXyXyXyXyXyXyXyXyX9X5X= x t.NXNXNXNXNXNXNXNXNX",
"NXNXNXNXNXNXj.v   *.;XyXwXwXyXyXyXyXyXyXyXyXyXyXyXyXyXyXyXyXyXyXyXyXyXyXyX:Xs   k.NXNXNXNXNXNXNX",
"NXNXNXNXNXf.0.: d &X7XtXtXtXyXyXyXyXyXyXyXyXyXyXyXyXyXyXyXyXyXyXyXyXyXyXwX7X-X*.u.iXNXNXNXNXNXNX",
"NXNXNXNXNXk @ # <.5XyXqXtXyXyXyXyXyXyXyXyXyXyXyXyXyXyXyXyXyXyXyXyXyXyXyXqXwXyX<X*.  NXNXNXNXNXNX",
"NXNXNXNXNXV ~ N.l.4 t wXtXyXyXyXyXyXyXyXyXyXyXyXyXyXyXyXyXyXyXyXyXyXyXyX0X=X=.'.o.x NXNXNXNXNXNX",
"NXNXNXNXNX} ~ c.G.b.I <.>X8XyXyXyXyXyXyXyXyXyXyXyXyXyXyXyXyXyXyXyXwX7X;X9.7.OX[.@.j NXNXNXNXNXNX",
"NXNXNXNXNX5.E x.E.G.v.  :.>XyXyXyXyXyXyXyXyXyXyXyXyXyXyXyXyXyXyXyX0X=X#._ W. XoX+X1.NXNXNXNXNXNX",
"NXNXNXNXNX4.R x.E.E.T.S.S o =.1XtXwXyXyXyXyXyXyXyXyXyXyXyXyXqX>X$.. ` ].oXoX#X#X@X1.NXNXNXNXNXNX",
"NXNXNXNXNX4.R x.E.T.T.I.m.G g ,.*X9XtXuXyXyXyXyXyXyXuXqX5X*X<.6.+.O./.}.oX#X#X#X@X1.NXNXNXNXNXNX",
"NXNXNXNXNX} R x.E.T.Y.E.J.M., $ d 6XtXuXyXyXyXyXyXyXuX5X&Xa . 9 (..X#X#X#X#X#X#X@X1.NXNXNXNXNXNX",
"NXNXNXNXNX} R Y Y.Y.Y.U.E.R.B.M.v.J *.%XyXwXwXyX8X>X&.= 6 ..XX.X|.#X#X#X#X#X#X#X@X1.NXNXNXNXNXNX",
"NXNXNXNXNX4.T P T.Y.Y.Y.T.R.P.A.n.P / 3.&X7XqX9X&X*.i ] Q.`..X#X.X#X#X#X#X#X#X#X@X1.NXNXNXNXNXNX",
"NXNXNXNXNX4.T L E.T.Y.Y.Y.Y.E.F.B.V.Z.z.* :X9X7Xd X & ). X#X#X#X#X#X#X#X#X#X#X#X@X1.NXNXNXNXNXNX",
"NXNXNXNXNXV T L Y.Y.Y.Y.Y.Y.Y.Y.U.F.m.m.Y.G = &. ./.#X#X#X#X#X#X#X#X#X#X#X#X#X#X@X1.NXNXNXNXNXNX",
"NXNXNXNXNXV T L Y.Y.Y.Y.Y.Y.Y.Y.U.I.F.F.F.S : { _.{.#X#X#X#X#X#X#X#X#X#X#X#X#X#X@X1.NXNXNXNXNXNX",
"NXNXNXNXNXV T L Y.Y.Y.Y.Y.Y.Y.Y.Y.Y.Y.L.Y D r ~.XX#X#X#X#X#X#X#X#X#X#X#X#X#X#X#X@X1.NXNXNXNXNXNX",
"NXNXNXNXNXv 5 F Y.Y.Y.Y.Y.Y.Y.Y.Y.Y.Y.Y.E.! e ~.XX#X#X#X#X#X#X#X#X#X#X#X#X#X#X#X@X1.NXNXNXNXNXNX",
"NXNXNXNXNXl 5 F T.Y.Y.Y.Y.Y.Y.Y.Y.Y.Y.Y.E.W e ~.XX#X#X#X#X#X#X#X#X#X#X#X#X#X#X#X@X1.NXNXNXNXNXNX",
"NXNXNXNXNXl 5 F E.T.Y.Y.Y.Y.Y.Y.Y.Y.Y.Y.E.W e ~.XX#X#X#X#X#X#X#X#X#X#X#X#X#X#X#X@X1.NXNXNXNXNXNX",
"NXNXNXNXNX} c F E.T.Y.E.T.Y.Y.Y.Y.Y.Y.Y.E.U q ~.XX#X#X#X#X#X#X#X#X#X#X#X#X#X#X#X@X1.NXNXNXNXNXNX",
"NXNXNXNXNX} c F E.T.Y.T.Y.Y.Y.Y.Y.Y.Y.Y.E.U q ~.XX#X#X#X#X#X#X#X#X#X#X#X#X#X#X#X@X1.NXNXNXNXNXNX",
"NXNXNXNXNX} c A E.T.Y.Y.Y.Y.Y.Y.Y.Y.Y.Y.E.H q ~.XX#X#X#X#X#X#X#X#X#X#X#X#X#X#X#X@X1.NXNXNXNXNXNX",
"NXNXNXNXNX} c F E.T.Y.Y.Y.Y.Y.Y.Y.Y.Y.Y.E.G 0 ~.|.#X#X#X#X#X#X#X#X#X#X#X#X#X#X#X@X1.NXNXNXNXNXNX",
"NXNXNXNXNX} r Z E.T.Y.Y.Y.Y.Y.Y.Y.Y.Y.Y.E.G 0 ~.|.#X#X#X#X#X#X#X#X#X#X#X#X#X#X#X@X1.NXNXNXNXNXNX",
"NXNXNXNXNX| r < E.T.Y.Y.Y.Y.Y.Y.Y.Y.Y.Y.E.G 0 ~.|.#X#X#X#X#X#X#X#X#X#X#X#X#X#X#X@X1.NXNXNXNXNXNX",
"NXNXNXNXNXy.( K E.E.T.Y.Y.Y.Y.Y.Y.Y.Y.Y.E.G 6 ~.|.#X#X#X#X#X#X#X#X#X#X#X#X#X#X+ u 1.NXNXNXNXNXNX",
"NXNXNXNXNXxXt.1 V.H.T.T.T.T.Y.Y.Y.Y.Y.Y.E.G 6 ~.|.#X#X#X#X#X#X#X#X#X#X#X`.^.Q.f e.NXNXNXNXNXNXNX",
"NXNXNXNXNXNXk.+ , C.Y.E.E.E.Y.Y.Y.Y.Y.Y.E.G 6 ~.|.#X#X#X#X#X#X#X#X#X#X#XO.w   m NXNXNXNXNXNXNXNX",
"NXNXNXNXNXNXNXkXz - # U.Y.E.E.Y.Y.Y.Y.Y.E.G 6 ~.|.#X#X#X#X#X#X#X#X X!.X   0.NXNXNXNXNXNXNXNXNXNX",
"NXNXNXNXNXNXNXNXgXp.C ^ F.U.E.Y.Y.Y.Y.Y.T.H 8 ~.|.#X#X#X#X#X#X|.).[ ` : g.NXNXNXNXNXNXNXNXNXNXNX",
"NXNXNXNXNXNXNXNXNXvXf.  ^ H.E.Y.Y.Y.Y.Y.T.H e ~.|.#X#X#X#X#X#X[.[ X : B NXNXNXNXNXNXNXNXNXNXNXNX",
"NXNXNXNXNXNXNXNXNXNXNXgXC # N.I.E.Y.T.T.U.S 6 ~.|.#X#X#X.X X7     cXNXNXNXNXNXNXNXNXNXNXNXNXNXNX",
"NXNXNXNXNXNXNXNXNXNXNXNXhXh.G M.G.T.T.T.I.4 6 ~.{..X#X[./.[ b 0.k.NXNXNXNXNXNXNXNXNXNXNXNXNXNXNX",
"NXNXNXNXNXNXNXNXNXNXNXNXNXNX  S b.E.E.Y.J.2 6 ~.{..X#XW.'   3.fXNXNXNXNXNXNXNXNXNXNXNXNXNXNXNXNX",
"NXNXNXNXNXNXNXNXNXNXNXNXNXNXNXa.; 3 K.R.D.1 6 ~.|.).  . r.NXNXNXNXNXNXNXNXNXNXNXNXNXNXNXNXNXNXNX",
"NXNXNXNXNXNXNXNXNXNXNXNXNXNXNXvXeXw.) m.M.> 6 ~.Q.X.-.g.lXNXNXNXNXNXNXNXNXNXNXNXNXNXNXNXNXNXNXNX",
"NXNXNXNXNXNXNXNXNXNXNXNXNXNXNXNXNXrXv # Q % 7 ~.6 f 2XNXNXNXNXNXNXNXNXNXNXNXNXNXNXNXNXNXNXNXNXNX",
"NXNXNXNXNXNXNXNXNXNXNXNXNXNXNXNXNXNXMXpX  * y h nXNXNXNXNXNXNXNXNXNXNXNXNXNXNXNXNXNXNXNXNXNXNXNX",
"NXNXNXNXNXNXNXNXNXNXNXNXNXNXNXNXNXNXNXNXd.n N dXNXNXNXNXNXNXNXNXNXNXNXNXNXNXNXNXNXNXNXNXNXNXNXNX",
"NXNXNXNXNXNXNXNXNXNXNXNXNXNXNXNXNXNXNXNXNXq.q.NXNXNXNXNXNXNXNXNXNXNXNXNXNXNXNXNXNXNXNXNXNXNXNXNX"
};
