/* XPM */
static char *xombreroicon64[] = {
/* columns rows colors chars-per-pixel */
"64 64 200 2 ",
"   c #1E1E1B",
".  c #22221D",
"X  c #282820",
"o  c #313127",
"O  c #45452F",
"+  c #48482F",
"@  c #434334",
"#  c #4D4D35",
"$  c #494939",
"%  c #545435",
"&  c #56563C",
"*  c #585839",
"=  c #00004E",
"-  c #000057",
";  c #00005A",
":  c #0B0B5B",
">  c #1E1E5F",
",  c #22225E",
"<  c #3C3C51",
"1  c #010164",
"2  c #00006C",
"3  c #0A0A65",
"4  c #131364",
"5  c #1A1A65",
"6  c #1C1C6B",
"7  c #000074",
"8  c #00007C",
"9  c #0D0D7B",
"0  c #090974",
"q  c #171778",
"w  c #262669",
"e  c #36366C",
"r  c #242476",
"t  c #2B2B75",
"y  c #23237B",
"u  c #3C3C7D",
"i  c #3E3E75",
"p  c #565641",
"a  c #5C5C45",
"s  c #5B5B4B",
"d  c #545449",
"f  c #454558",
"g  c #545455",
"h  c #5C5C55",
"j  c #53535C",
"k  c #5C5C5C",
"l  c #63634C",
"z  c #676743",
"x  c #646454",
"c  c #6D6D55",
"v  c #62625B",
"b  c #686858",
"n  c #747455",
"m  c #75755B",
"M  c #4B4B65",
"N  c #4C4C6D",
"B  c #42426A",
"V  c #535362",
"C  c #55556C",
"Z  c #5D5D6B",
"A  c #5F5F67",
"S  c #464675",
"D  c #4D4D75",
"F  c #545473",
"G  c #666662",
"H  c #6E6E61",
"J  c #6C6C6D",
"K  c #7C7C67",
"L  c #73736F",
"P  c #767665",
"I  c #636379",
"U  c #7F7F72",
"Y  c #7D7D7C",
"T  c #767677",
"R  c #85855A",
"E  c #929262",
"W  c #85857C",
"Q  c #8F8F78",
"!  c #9B9B7A",
"~  c #000083",
"^  c #0B0B82",
"/  c #00008A",
"(  c #09098D",
")  c #1B1B81",
"_  c #15158A",
"`  c #000094",
"'  c #00009B",
"]  c #0C0C99",
"[  c #0F0F92",
"{  c #161696",
"}  c #14149A",
"|  c #1E1E9A",
" . c #1E1E95",
".. c #252582",
"X. c #2C2C8E",
"o. c #272788",
"O. c #353585",
"+. c #393983",
"@. c #38388B",
"#. c #27279B",
"$. c #2A2A94",
"%. c #333391",
"&. c #3F3F9D",
"*. c #3F3F94",
"=. c #0000A3",
"-. c #0101AB",
";. c #1414AF",
":. c #1919A6",
">. c #0000B4",
",. c #0000BB",
"<. c #0B0BBB",
"1. c #1818B6",
"2. c #2525A2",
"3. c #3131A2",
"4. c #4B4B89",
"5. c #45458A",
"6. c #51518B",
"7. c #4F4F90",
"8. c #505094",
"9. c #6D6D85",
"0. c #666687",
"q. c #777782",
"w. c #656599",
"e. c #4848A9",
"r. c #5B5BAA",
"t. c #5656A5",
"y. c #4B4BB4",
"u. c #5454BE",
"i. c #6464A0",
"p. c #6767A8",
"a. c #7A7AA8",
"s. c #6666B3",
"d. c #0101C4",
"f. c #0000CD",
"g. c #0909CC",
"h. c #0000D3",
"j. c #0000DB",
"k. c #0D0DD8",
"l. c #2626C5",
"z. c #3535D7",
"x. c #0202E3",
"c. c #0000EC",
"v. c #0000F5",
"b. c blue",
"n. c #1A1AF0",
"m. c #2C2CEE",
"M. c #4A4AC5",
"N. c #5555DB",
"B. c #6868C1",
"V. c #7373D4",
"C. c #4C4CE3",
"Z. c #6F6FE4",
"A. c #868688",
"S. c #9A9A83",
"D. c #9A9A97",
"F. c #A3A38E",
"G. c #BCBC87",
"H. c #ABAB99",
"J. c #8080AB",
"K. c #8787AA",
"L. c #8B8BB9",
"P. c #9797B7",
"I. c #AAAAA2",
"U. c #ABABB6",
"Y. c #B3B3B9",
"T. c #C8C89F",
"R. c #CACAB6",
"E. c #9A9AC4",
"W. c #9494DA",
"Q. c #ADADC5",
"!. c #ADADCB",
"~. c #A1A1C2",
"^. c #B6B6CC",
"/. c #BCBCCE",
"(. c #B8B8C0",
"). c #ACACDD",
"_. c #BBBBD6",
"`. c #ADADE4",
"'. c #C6C6C4",
"]. c #DCDCCA",
"[. c #D7D7CB",
"{. c #C4C4DA",
"}. c #D1D1DE",
"|. c #E6E6CE",
" X c #F4F4C9",
".X c #EEEED9",
"XX c #E4E4D6",
"oX c #FAFADD",
"OX c #D6D6E4",
"+X c #DBDBE5",
"@X c #E4E4E5",
"#X c #E4E4EC",
"$X c #ECECEE",
"%X c #FAFAE4",
"&X c #F2F2E8",
"*X c #EDEDF1",
"=X c #F4F4F4",
"-X c #FBFBFB",
";X c #FFFFF7",
":X c None",
/* pixels */
":X:X:X:X:X:X:X:X:X:X:X:X:X:X:X:X:X:X:X:X:X:X:X:X:X:X:X:X:X:X:X:X:X:X:X:X:X:X:X:X:X:X:X:X:X:X:X:X:X:X:X:X:X:X:X:X:X:X:X:X:X:X:X:X",
":X:X:X:X:X:X:X:X:X:X:X:X:X:X:X:X:X:X:X:X:X:X:X:X:X:X:X:X:X:X:X:X:X:X:X:X:X:X:X:X:X:X:X:X:X:X:X:X:X:X:X:X:X:X:X:X:X:X:X:X:X:X:X:X",
":X:X:X:X:X:X:X:X:X:X:X:X:X:X:X:X:X:X:X:X:X:X:X:X:X:X:X:X:X:X:X:X:X:X:X:X:X:X:X:X:X:X:X:X:X:X:X:X:X:X:X:X:X:X:X:X:X:X:X:X:X:X:X:X",
":X:X:X:X:X:X:X:X:X:X:X:X:X:X:X:X:X:X:X:X:X:X:X:X:X:X:X:X:X:X:X:X:X:X:X:X:X:X:X:X:X:X:X:X:X:X:X:X:X:X:X:X:X:X:X:X:X:X:X:X:X:X:X:X",
":X:X:X:X:X:X:X:X:X:X:X:X:X:X:X:X:X:X:X:X:X:X:X:X:X:X:X:X:X:X:X:X:X:X:X:X:X:X:X:X:X:X:X:X:X:X:X:X:X:X:X:X:X:X:X:X:X:X:X:X:X:X:X:X",
":X:X:X:X:X:X:X:X:X:X:X:X:X:X:X:X:X:X:X:X:X:X:X:X:X:X:X:X:X:X:X:X:X:X:X:X:X:X:X:X:X:X:X:X:X:X:X:X:X:X:X:X:X:X:X:X:X:X:X:X:X:X:X:X",
":X:X:X:X:X:X:X:X:X:X:X:X:X:X:X:X:X:X:X:X:X:X:X:X:X:X:X:X:X:X:X:X:X:X:X:X:X:X:X:X:X:X:X:X:X:X:X:X:X:X:X:X:X:X:X:X:X:X:X:X:X:X:X:X",
":X:X:X:X:X:X:X:X:X:X:X:X:X:X:X:X:X:X:X:X:X:X:X:X:X:X:X:X:X:X:X:X:X:X:X:X:X:X:X:X:X:X:X:X:X:X:X:X:X:X:X:X:X:X:X:X:X:X:X:X:X:X:X:X",
":X:X:X:X:X:X:X:X:X:X:X:X:X:X:X:X:X:X:X:X:X:X:X:X:X:X:X:X:X:X:X:X:X:X:X:X:X:X:X:X:X:X:X:X:X:X:X:X:X:X:X:X:X:X:X:X:X:X:X:X:X:X:X:X",
":X:X:X:X:X:X:X:X:X:X:X:X:X:X:X:X:X:X:X:X:X:X:X:X:X:X:X:X:X:X:X:X:X:X:X:X:X:X:X:X:X:X:X:X:X:X:X:X:X:X:X:X:X:X:X:X:X:X:X:X:X:X:X:X",
":X:X:X:X:X:X:X:X:X:X:X:X:X:X:X:X:X:X:X:X:X:X:X:X:X:X:X:X:X:X:X:X:X:X:X:X:X:X:X:X:X:X:X:X:X:X:X:X:X:X:X:X:X:X:X:X:X:X:X:X:X:X:X:X",
":X:X:X:X:X:X:X:X:X:X:X:X:X:X:X:X:X:X:X:X:X:X:X:X:X:X:X:X:X:X:X:X:X:X:X:X:X:X:X:X:X:X:X:X:X:X:X:X:X:X:X:X:X:X:X:X:X:X:X:X:X:X:X:X",
":X:X:X:X:X:X:X:X:X:X:X:X:X:X:X:X:X:X:X:X:X:X:X:X:X:X:X:X:X:X:X:X:X:X:X:X:X:X:X:X:X:X:X:X:X:X:X:X:X:X:X:X:X:X:X:X:X:X:X:X:X:X:X:X",
":X:X:X:X:X:X:X:X:X:X:X:X:X:X:X:X:X:X:X:X:X:X:X:X:X:X:X:X:X:X:X:X:X:X:X:X X%X:X:X:X:X:X:X:X:X:X:X:X:X:X:X:X:X:X:X:X:X:X:X:X:X:X:X",
":X:X:X:X:X:X:X:X:X:X:X:X:X:X:X:X:X:X:X:X:X:X:X:X:X:X:X:X:X:X:X:X:X:XT.R.Z.`.%X:X:X:X:X:X:X:X:X:X:X:X:X:X:X:X:X:X:X:X:X:X:X:X:X:X",
":X:X:X:X:X:X:X:X:X:X:X:X:X:X:X:X:X:X:X:X:X:X:X:X:X:X:X:X:X:X:X:X:XG.P.m.b.n.oX:X:X:X:X:X:X:X:X:X:X:X:X:X:X:X:X:X:X:X:X:X:X:X:X:X",
":X:X:X:X:X:X:X:X:X:X:X:X:X:X:X:X:X:X:X:X:X:X:X:X:X:X:X:X:X:XH E A.M.v.v.x.x.)..X:X:X:X:X:X:X:X:X:X:X:X:X:X:X:X:X:X:X:X:X:X:X:X:X",
":X:X:X:X:X:X:X:X:X:X:X:X:X:X:X:X:X:X:X:X:X:X:X:X:X:X:X:Xz c Z e.x.c.j.f.h.h.N.%X:X:X:X:X:X:X:X:X:X:X:X:X:X:X:X:X:X:X:X:X:X:X:X:X",
":X:X:X:X:X:X:X:X:X:X:X:X:X:X:X:X:X:XA.Y Y W P H b x j N +.2.h.j.d.,.>.,.,.d.g.@X:X:X:X:X:X:X:X:X:X:X:X:X:X:X:X:X:X:X:X:X:X:X:X:X",
":X:X:X:X:X:X:X:X:X:X:X:X:X:X:X:X:X:X9.:.{ ..y y ) _ ] -.,.>.=.' ' ' =.-.>.>.>.W..X:X:X:X:X:X:X:X:X:X:X:X:X:X:X:X:X:X:X:X:X:X:X:X",
":X:X:X:X:X:X:X:X:X:X:X:X:X:X:X:X:X:X0.=.` 7 2 2 7 8 8 8 7 8 ~ ~ / / ` ' ' =.=.M.%X:X:X:X:X:X:X:X:X:X:X:X:X:X:X:X:X:X:X:X:X:X:X:X",
":X:X:X:X:X:X:X:X:X:X:X:X:X:X:X:X:X:Xq.' ~ 2 - - ; ; 1 1 2 2 7 7 8 ~ / / ` ` ' u.#X:X:X:X:X:X:X:X:X:X:X:X:X:X:X:X:X:X:X:X:X:X:X:X",
":X:X:X:X:X:X:X:X:X:X:X:X:X:X:X:X:X:XY ] ` 2 - - - ; ; ; ; 1 1 2 7 7 8 8 ~ / | #X_.[.:X:X:X:X:X:X:X:X:X:X:X:X:X:X:X:X:X:X:X:X:X:X",
":X:X:X:X:X:X:X:X:X:X:X:X:X:X:X:X:X:XY { / 2 ; - ; - ; ; ; ; 1 ; 1 2 O.E.t.8 OX{.s.&X:X:X:X:X:X:X:X:X:X:X:X:X:X:X:X:X:X:X:X:X:X:X",
":X:X:X:X:X:X:X:X:X:X:X:X:X:X:X:X:X:XW  .' 7 ; - ; - ; - - - ; 4 a.3 +.#X=X!.+X2 X.;X:X:X:X:X:X:X:X:X:X:X:X:X:X:X:X:X:X:X:X:X:X:X",
":X:X:X:X:X:X:X:X:X:X:X:X:X:X:X:X:X:XP #.=.8 ; - - - - 6 u ; - +X}.- ; ; p.;X-X8.2 +XH.x L J Z C D S S O.%.%.S h h g :X:X:X:X:X:X",
":X:X:X:X:X:X:X:X:X:X:X:X:X:X:X:X:X:Xm 3.,./ 1 ; 3 w.; 6.$X{.4.*X: - - - L.^.J.=X/.^./.4 9 / ` >.f.x.j.h.1.#.S h h :X:X:X:X:X:X:X",
":X:X:X:X:X:X:X:X:X:X:X:X:X:X:X:X:X:X* e.z.B.9 1 _.=X; ; 4.=X-XQ.; ; ; 6.&X: = t w..XL.7 ' ,.d.d.;.X.S j a % :X:X:X:X:X:X:X:X:X:X",
":X:X:X:X:X:X:X:X:X:X:X:X:X:X:X:X:X:XR u C.$X#Xo.=X@.1 1 1 +.=X-X}.6.; J.w.w 9.H.].Q.' -.-.| +.V a * :X:X:X:X:X:X:X:X:X:X:X:X:X:X",
":X:X:X:X:X:X:X:X:X:X:X:X:X|.].'.Y.Q.A.N x.l.=X-X{.2 2 2 1 _.~.5.=X/.5 M W F.D.i.2.` ( u j a # :X:X:X:X:X:X:X:X:X:X:X:X:X:X:X:X:X",
":X:X:X:X:X:X:X:X:X:XXX(.K.i.5.o.^ ~ 3 H k.h.:.;X*XX.7 7 0 =XO.2 5 j H L D q ( / 9 B s # :X:X:X:X:X:X:X:X:X:X:X:X:X:X:X:X:X:X:X:X",
":X:X:X:X:X:X:X:X[.J.O.7 7 7 8 8 8 8 7 x l.c.1.$X*X=Xt.7 r.{.q j c g w 7 / / r V p o :X:X:X:X:X:X:X:X:X:X:X:X:X:X:X:X:X:X:X:X:X:X",
":X:X:X:X:X:X[.U.r 1 1 8 8 ~ ~ 8 8 8 8 d &.v.V.$X^ OX*Xt._ B c g 4 7 8 / r j & X :X:X:X:X:X:X:X:X:X:X:X:X:X:X:X:X:X:X:X:X:X:X:X:X",
":X:X:X:X:X:XU.2 1 7 8 ~ ~ 8 ~ ~ 8 8 8 < F h.W.*X8 ~ s.o.L n , 2 7 ~ 9 M a X :X:X:X:X:X:X:X:X:X:X:X:X:X:X:X:X:X:X:X:X:X:X:X:X:X:X",
":X:X:X:X:XR.@.2 8 8 8 8 ~ 8 8 8 8 7 8 , h -.).$X7 8 +.Q G 1 2 8 ~ r h @ :X:X:X:X:X:X:X:X:X:X:X:X:X:X:X:X:X:X:X:X:X:X:X:X:X:X:X:X",
":X:X:X:X:XH._ ~ 8 ~ ~ ~ 8 ~ 8 8 8 7 7 2 l ) y.t.t q.! N 1 7 8 ~ e l . :X:X:X:X:X:X:X:X:X:X:X:X:X:X:X:X:X:X:X:X:X:X:X:X:X:X:X:X:X",
":X:X:X:X:XD.{ / / ~ ~ ~ ~ 8 8 8 7 7 2 2 < x D Y S.T 5 2 7 ~ ^ M & :X:X:X:X:X:X:X:X:X:X:X:X:X:X:X:X:X:X:X:X:X:X:X:X:X:X:X:X:X:X:X",
":X:X:X:X:XQ #.=.` / ~ ~ ~ 8 8 7 7 7 2 2 2 f G D 6 1 2 8 / q h @ :X:X:X:X:X:X:X:X:X:X:X:X:X:X:X:X:X:X:X:X:X:X:X:X:X:X:X:X:X:X:X:X",
":X:X:X:X:Xc 7.,.=.` / / ~ 8 8 8 7 7 7 2 2 2 2 1 1 7 8 ~ e x o :X:X:X:X:X:X:X:X:X:X:X:X:X:X:X:X:X:X:X:X:X:X:X:X:X:X:X:X:X:X:X:X:X",
":X:X:X:X:X:XK ;.d.' ' ` / ~ 8 8 7 7 7 2 2 2 2 2 8 / ^ M a :X:X:X:X:X:X:X:X:X:X:X:X:X:X:X:X:X:X:X:X:X:X:X:X:X:X:X:X:X:X:X:X:X:X:X",
":X:X:X:X:X:X@ A d.d.=.' ` / ~ ~ 8 8 7 8 7 8 7 ~ / t b $ :X:X:X:X:X:X:X:X:X:X:X:X:X:X:X:X:X:X:X:X:X:X:X:X:X:X:X:X:X:X:X:X:X:X:X:X",
":X:X:X:X:X:X:X# j <.h.-.' ' ` / / ~ ~ ~ ~ ~ / y C l . :X:X:X:X:X:X:X:X:X:X:X:X:X:X:X:X:X:X:X:X:X:X:X:X:X:X:X:X:X:X:X:X:X:X:X:X:X",
":X:X:X:X:X:X:X:X@ h $.,.d.>.-.' ' ` ` / / y N b @ :X:X:X:X:X:X:X:X:X:X:X:X:X:X:X:X:X:X:X:X:X:X:X:X:X:X:X:X:X:X:X:X:X:X:X:X:X:X:X",
":X:X:X:X:X:X:X:X:XX % M O. .} ] [ _ o.i Z x @ :X:X:X:X:X:X:X:X:X:X:X:X:X:X:X:X:X:X:X:X:X:X:X:X:X:X:X:X:X:X:X:X:X:X:X:X:X:X:X:X:X",
":X:X:X:X:X:X:X:X:X:X:X. + p h k k x s $ X :X:X:X:X:X:X:X:X:X:X:X:X:X:X:X:X:X:X:X:X:X:X:X:X:X:X:X:X:X:X:X:X:X:X:X:X:X:X:X:X:X:X:X",
":X:X:X:X:X:X:X:X:X:X:X:X:X:X:X:X:X:X:X:X:X:X:X:X:X:X:X:X:X:X:X:X:X:X:X:X:X:X:X:X:X:X:X:X:X:X:X:X:X:X:X:X:X:X:X:X:X:X:X:X:X:X:X:X",
":X:X:X:X:X:X:X:X:X:X:X:X:X:X:X:X:X:X:X:X:X:X:X:X:X:X:X:X:X:X:X:X:X:X:X:X:X:X:X:X:X:X:X:X:X:X:X:X:X:X:X:X:X:X:X:X:X:X:X:X:X:X:X:X",
":X:X:X:X:X:X:X:X:X:X:X:X:X:X:X:X:X:X:X:X:X:X:X:X:X:X:X:X:X:X:X:X:X:X:X:X:X:X:X:X:X:X:X:X:X:X:X:X:X:X:X:X:X:X:X:X:X:X:X:X:X:X:X:X",
":X:X:X:X:X:X:X:X:X:X:X:X:X:X:X:X:X:X:X:X:X:X:X:X:X:X:X:X:X:X:X:X:X:X:X:X:X:X:X:X:X:X:X:X:X:X:X:X:X:X:X:X:X:X:X:X:X:X:X:X:X:X:X:X",
":X:X:X:X:X:X:X:X:X:X:X:X:X:X:X:X:X:X:X:X:X:X:X:X:X:X:X:X:X:X:X:X:X:X:X:X:X:X:X:X:X:X:X:X:X:X:X:X:X:X:X:X:X:X:X:X:X:X:X:X:X:X:X:X",
":X:X:X:X:X:X:X:X:X:X:X:X:X:X:X:X:X:X:X:X:X:X:X:X:X:X:X:X:X:X:X:X:X:X:X:X:X:X:X:X:X:X:X:X:X:X:X:X:X:X:X:X:X:X:X:X:X:X:X:X:X:X:X:X",
":X:X:X:X:X:X:X:X:X:X:X:X:X:X:X:X:X:X:X:X:X:X:X:X:X:X:X:X:X:X:X:X:X:X:X:X:X:X:X:X:X:X:X:X:X:X:X:X:X:X:X:X:X:X:X:X:X:X:X:X:X:X:X:X",
":X:X:X:X:X:X:X:X:X:X:X:X:X:X:X:X:X:X:X:X:X:X:X:X:X:X:X:X:X:X:X:X:X:X:X:X:X:X:X:X:X:X:X:X:X:X:X:X:X:X:X:X:X:X:X:X:X:X:X:X:X:X:X:X",
":X:X:X:X:X:X:X:X:X:X:X:X:X:X:X:X:X:X:X:X:X:X:X:X:X:X:X:X:X:X:X:X:X:X:X:X:X:X:X:X:X:X:X:X:X:X:X:X:X:X:X:X:X:X:X:X:X:X:X:X:X:X:X:X",
":X:X:X:X:X:X:X:X:X:X:X:X:X:X:X:X:X:X:X:X:X:X:X:X:X:X:X:X:X:X:X:X:X:X:X:X:X:X:X:X:X:X:X:X:X:X:X:X:X:X:X:X:X:X:X:X:X:X:X:X:X:X:X:X",
":X:X:X:X:X:X:X:X:X:X:X:X:X:X:X:X:X:X:X:X:X:X:X:X:X:X:X:X:X:X:X:X:X:X:X:X:X:X:X:X:X:X:X:X:X:X:X:X:X:X:X:X:X:X:X:X:X:X:X:X:X:X:X:X",
":X:X:X:X:X:X:X:X:X:X:X:X:X:X:X:X:X:X:X:X:X:X:X:X:X:X:X:X:X:X:X:X:X:X:X:X:X:X:X:X:X:X:X:X:X:X:X:X:X:X:X:X:X:X:X:X:X:X:X:X:X:X:X:X",
":X:X:X:X:X:X:X:X:X:X:X:X:X:X:X:X:X:X:X:X:X:X:X:X:X:X:X:X:X:X:X:X:X:X:X:X:X:X:X:X:X:X:X:X:X:X:X:X:X:X:X:X:X:X:X:X:X:X:X:X:X:X:X:X",
":X:X:X:X:X:X:X:X:X:X:X:X:X:X:X:X:X:X:X:X:X:X:X:X:X:X:X:X:X:X:X:X:X:X:X:X:X:X:X:X:X:X:X:X:X:X:X:X:X:X:X:X:X:X:X:X:X:X:X:X:X:X:X:X",
":X:X:X:X:X:X:X:X:X:X:X:X:X:X:X:X:X:X:X:X:X:X:X:X:X:X:X:X:X:X:X:X:X:X:X:X:X:X:X:X:X:X:X:X:X:X:X:X:X:X:X:X:X:X:X:X:X:X:X:X:X:X:X:X",
":X:X:X:X:X:X:X:X:X:X:X:X:X:X:X:X:X:X:X:X:X:X:X:X:X:X:X:X:X:X:X:X:X:X:X:X:X:X:X:X:X:X:X:X:X:X:X:X:X:X:X:X:X:X:X:X:X:X:X:X:X:X:X:X",
":X:X:X:X:X:X:X:X:X:X:X:X:X:X:X:X:X:X:X:X:X:X:X:X:X:X:X:X:X:X:X:X:X:X:X:X:X:X:X:X:X:X:X:X:X:X:X:X:X:X:X:X:X:X:X:X:X:X:X:X:X:X:X:X",
":X:X:X:X:X:X:X:X:X:X:X:X:X:X:X:X:X:X:X:X:X:X:X:X:X:X:X:X:X:X:X:X:X:X:X:X:X:X:X:X:X:X:X:X:X:X:X:X:X:X:X:X:X:X:X:X:X:X:X:X:X:X:X:X",
":X:X:X:X:X:X:X:X:X:X:X:X:X:X:X:X:X:X:X:X:X:X:X:X:X:X:X:X:X:X:X:X:X:X:X:X:X:X:X:X:X:X:X:X:X:X:X:X:X:X:X:X:X:X:X:X:X:X:X:X:X:X:X:X"
};
